GPL-3.0-only 1023
Apache-2.0 608
GPL-3.0-or-later 345
MIT 311
GPL-2.0-only 144
GPL-2.0-or-later 98
BSD-3-Clause 42
AGPL-3.0-only 28
MPL-2.0 24
LGPL-3.0-only 17
WTFPL 16
AGPL-3.0-or-later 15
BSD-2-Clause-FreeBSD 14
PublicDomain 12
Unlicense 9
ISC 8
LGPL-2.1-only 7
Artistic-2.0 4
LGPL-2.1-or-later 4
BSD-2-Clause 3
CC-BY-4.0 3
EPL-1.0 3
Beerware 2
CC-BY-NC-3.0 2
CC-BY-SA-3.0 2
CC-BY-SA-4.0 2
CC0-1.0 2
MirOS 2
Zlib 2
0BSD 1
AML 1
BSD-2-Clause-NetBSD 1
EUPL-1.1 1
Fair 1
LGPL-3.0-or-later 1
MIT-CMU 1
MPL-1.1 1
NCSA 1
NPOSL-3.0 1
X11 1
XSkat 1
